\relax 
\providecommand\hyper@newdestlabel[2]{}
\catcode \string ``=12
\providecommand\HyperFirstAtBeginDocument{\AtBeginDocument}
\HyperFirstAtBeginDocument{\ifx\hyper@anchor\@undefined
\global\let\oldcontentsline\contentsline
\gdef\contentsline#1#2#3#4{\oldcontentsline{#1}{#2}{#3}}
\global\let\oldnewlabel\newlabel
\gdef\newlabel#1#2{\newlabelxx{#1}#2}
\gdef\newlabelxx#1#2#3#4#5#6{\oldnewlabel{#1}{{#2}{#3}}}
\AtEndDocument{\ifx\hyper@anchor\@undefined
\let\contentsline\oldcontentsline
\let\newlabel\oldnewlabel
\fi}
\fi}
\global\let\hyper@last\relax 
\gdef\HyperFirstAtBeginDocument#1{#1}
\providecommand\HyField@AuxAddToFields[1]{}
\providecommand\HyField@AuxAddToCoFields[2]{}
\bbl@cs{beforestart}
\@input{borito.aux}
\@writefile{toc}{\select@language{magyar} \contentsline {section}{\numberline {1}Bevezető}{1}{section.1}\protected@file@percent }
\@writefile{toc}{\select@language{magyar} \contentsline {section}{\numberline {2}Felhasználói dokumentáció}{2}{section.2}\protected@file@percent }
\@writefile{toc}{\select@language{magyar} \contentsline {subsection}{\numberline {2.1}Célközönség}{2}{subsection.2.1}\protected@file@percent }
\@writefile{toc}{\select@language{magyar} \contentsline {subsection}{\numberline {2.2}Rendszerkövetelmények}{2}{subsection.2.2}\protected@file@percent }
\@writefile{toc}{\select@language{magyar} \contentsline {subsection}{\numberline {2.3}Program fordítása}{2}{subsection.2.3}\protected@file@percent }
\@writefile{toc}{\select@language{magyar} \contentsline {subsection}{\numberline {2.4}Futtatás}{3}{subsection.2.4}\protected@file@percent }
\newlabel{sec_futtatas}{{2.4}{3}{Futtatás}{subsection.2.4}{}}
\@writefile{toc}{\select@language{magyar} \contentsline {subsection}{\numberline {2.5}Haskell Foreign Function Interface és kapcsolódó fogalmai}{3}{subsection.2.5}\protected@file@percent }
\newlabel{sec_ffi}{{2.5}{3}{Haskell Foreign Function Interface és kapcsolódó fogalmai}{subsection.2.5}{}}
\@writefile{toc}{\select@language{magyar} \contentsline {subsubsection}{\numberline {2.5.1}Saját típusok használata az FFI-vel}{6}{subsubsection.2.5.1}\protected@file@percent }
\@writefile{toc}{\select@language{magyar} \contentsline {subsubsection}{\numberline {2.5.2}Haskell és C\# típusainak megfeleltetése}{9}{subsubsection.2.5.2}\protected@file@percent }
\newlabel{sec_tipusok}{{2.5.2}{9}{Haskell és C\# típusainak megfeleltetése}{subsubsection.2.5.2}{}}
\@writefile{toc}{\select@language{magyar} \contentsline {subsection}{\numberline {2.6}Működés szemléltetése példán keresztül}{10}{subsection.2.6}\protected@file@percent }
\@writefile{toc}{\select@language{magyar} \contentsline {section}{\numberline {3}Fejlesztői dokumentáció}{28}{section.3}\protected@file@percent }
\@writefile{toc}{\select@language{magyar} \contentsline {subsection}{\numberline {3.1}Modulok kapcsolata}{28}{subsection.3.1}\protected@file@percent }
\@writefile{toc}{\select@language{magyar} \contentsline {subsubsection}{\numberline {3.1.1}KnownTypes}{29}{subsubsection.3.1.1}\protected@file@percent }
\newlabel{sec_knowntypes}{{3.1.1}{29}{KnownTypes}{subsubsection.3.1.1}{}}
\@writefile{toc}{\select@language{magyar} \contentsline {subsubsection}{\numberline {3.1.2}CHeaderParser}{29}{subsubsection.3.1.2}\protected@file@percent }
\@writefile{toc}{\select@language{magyar} \contentsline {subsubsection}{\numberline {3.1.3}CSTypes}{34}{subsubsection.3.1.3}\protected@file@percent }
\@writefile{toc}{\select@language{magyar} \contentsline {subsubsection}{\numberline {3.1.4}CSASTPrinter}{39}{subsubsection.3.1.4}\protected@file@percent }
\@writefile{toc}{\select@language{magyar} \contentsline {subsubsection}{\numberline {3.1.5}Main}{41}{subsubsection.3.1.5}\protected@file@percent }
\@writefile{toc}{\select@language{magyar} \contentsline {section}{\numberline {4}Tesztelés}{42}{section.4}\protected@file@percent }
\@writefile{toc}{\select@language{magyar} \contentsline {subsection}{\numberline {4.1}Rendszerváltozások}{42}{subsection.4.1}\protected@file@percent }
\@writefile{toc}{\select@language{magyar} \contentsline {subsection}{\numberline {4.2}Tesztek}{42}{subsection.4.2}\protected@file@percent }
\@writefile{toc}{\select@language{magyar} \contentsline {subsubsection}{\numberline {4.2.1}CSASTPrinterTest}{42}{subsubsection.4.2.1}\protected@file@percent }
\@writefile{toc}{\select@language{magyar} \contentsline {subsubsection}{\numberline {4.2.2}CHeaderParserTest}{42}{subsubsection.4.2.2}\protected@file@percent }
\@writefile{toc}{\select@language{magyar} \contentsline {subsubsection}{\numberline {4.2.3}CSTypesTest}{42}{subsubsection.4.2.3}\protected@file@percent }
\bibcite{haskell}{1}
